{
  "swagger": "2.0",
  "info": {
    "title": "auth-service.proto",
    "version": "version not set"
  },
  "tags": [
    {
      "name": "AuthService"
    }
  ],
  "consumes": [
    "application/json"
  ],
  "produces": [
    "application/json"
  ],
  "paths": {
    "/api/v1/auth": {
      "post": {
        "operationId": "AuthService_Authorize",
        "responses": {
          "200": {
            "description": "A successful response.",
            "schema": {
              "$ref": "#/definitions/AuthorResp"
            }
          },
          "default": {
            "description": "An unexpected error response.",
            "schema": {
              "$ref": "#/definitions/rpcStatus"
            }
          }
        },
        "parameters": [
          {
            "name": "body",
            "in": "body",
            "required": true,
            "schema": {
              "$ref": "#/definitions/GetSessionReq"
            }
          }
        ],
        "tags": [
          "AuthService"
        ]
      }
    },
    "/api/v1/getSession": {
      "get": {
        "operationId": "AuthService_GetSession",
        "responses": {
          "200": {
            "description": "A successful response.",
            "schema": {
              "$ref": "#/definitions/LoginEmailResp"
            }
          },
          "default": {
            "description": "An unexpected error response.",
            "schema": {
              "$ref": "#/definitions/rpcStatus"
            }
          }
        },
        "tags": [
          "AuthService"
        ]
      }
    },
    "/api/v1/login": {
      "post": {
        "operationId": "AuthService_Login",
        "responses": {
          "200": {
            "description": "A successful response.",
            "schema": {
              "$ref": "#/definitions/LoginEmailResp"
            }
          },
          "default": {
            "description": "An unexpected error response.",
            "schema": {
              "$ref": "#/definitions/rpcStatus"
            }
          }
        },
        "parameters": [
          {
            "name": "body",
            "in": "body",
            "required": true,
            "schema": {
              "$ref": "#/definitions/LoginEmailReq"
            }
          }
        ],
        "tags": [
          "AuthService"
        ]
      }
    },
    "/api/v1/ping": {
      "get": {
        "operationId": "AuthService_Sayhello",
        "responses": {
          "200": {
            "description": "A successful response.",
            "schema": {
              "$ref": "#/definitions/Pong"
            }
          },
          "default": {
            "description": "An unexpected error response.",
            "schema": {
              "$ref": "#/definitions/rpcStatus"
            }
          }
        },
        "tags": [
          "AuthService"
        ]
      }
    },
    "/api/v1/tokens": {
      "post": {
        "operationId": "AuthService_RequestNewTokens",
        "responses": {
          "200": {
            "description": "A successful response.",
            "schema": {
              "$ref": "#/definitions/LoginEmailResp"
            }
          },
          "default": {
            "description": "An unexpected error response.",
            "schema": {
              "$ref": "#/definitions/rpcStatus"
            }
          }
        },
        "parameters": [
          {
            "name": "body",
            "in": "body",
            "required": true,
            "schema": {
              "$ref": "#/definitions/RefreshTokensReq"
            }
          }
        ],
        "tags": [
          "AuthService"
        ]
      }
    },
    "/api/v1/users/register": {
      "post": {
        "operationId": "AuthService_Register",
        "responses": {
          "200": {
            "description": "A successful response.",
            "schema": {
              "$ref": "#/definitions/LoginEmailResp"
            }
          },
          "default": {
            "description": "An unexpected error response.",
            "schema": {
              "$ref": "#/definitions/rpcStatus"
            }
          }
        },
        "parameters": [
          {
            "name": "body",
            "in": "body",
            "required": true,
            "schema": {
              "$ref": "#/definitions/User"
            }
          }
        ],
        "tags": [
          "AuthService"
        ]
      }
    }
  },
  "definitions": {
    "AuthorResp": {
      "type": "object",
      "properties": {
        "StatusCode": {
          "type": "integer",
          "format": "int32"
        },
        "Message": {
          "type": "string"
        },
        "Role": {
          "type": "string"
        },
        "UserId": {
          "type": "string"
        }
      }
    },
    "GetSessionReq": {
      "type": "object"
    },
    "LoginEmailReq": {
      "type": "object",
      "properties": {
        "Email": {
          "type": "string"
        },
        "Password": {
          "type": "string"
        }
      }
    },
    "LoginEmailResp": {
      "type": "object",
      "properties": {
        "StatusCode": {
          "type": "integer",
          "format": "int32"
        },
        "Message": {
          "type": "string"
        },
        "SessionId": {
          "type": "string"
        },
        "AccessToken": {
          "type": "string"
        },
        "RefreshToken": {
          "type": "string"
        }
      }
    },
    "Pong": {
      "type": "object",
      "properties": {
        "StatusCode": {
          "type": "integer",
          "format": "int32"
        },
        "Message": {
          "type": "string"
        }
      }
    },
    "RefreshTokensReq": {
      "type": "object",
      "properties": {
        "RefreshToken": {
          "type": "string"
        }
      }
    },
    "User": {
      "type": "object",
      "properties": {
        "Id": {
          "type": "string"
        },
        "DisplayName": {
          "type": "string"
        },
        "Email": {
          "type": "string"
        },
        "IsActive": {
          "type": "boolean"
        },
        "Role": {
          "type": "string"
        },
        "CreatedAt": {
          "type": "string"
        },
        "UpdatedAt": {
          "type": "string"
        },
        "Password": {
          "type": "string"
        }
      }
    },
    "protobufAny": {
      "type": "object",
      "properties": {
        "@type": {
          "type": "string"
        }
      },
      "additionalProperties": {}
    },
    "rpcStatus": {
      "type": "object",
      "properties": {
        "code": {
          "type": "integer",
          "format": "int32"
        },
        "message": {
          "type": "string"
        },
        "details": {
          "type": "array",
          "items": {
            "$ref": "#/definitions/protobufAny"
          }
        }
      }
    }
  }
}
