{
  "swagger": "2.0",
  "info": {
    "title": "gateway-service.proto",
    "version": "version not set"
  },
  "tags": [
    {
      "name": "GatewayService"
    }
  ],
  "consumes": [
    "application/json"
  ],
  "produces": [
    "application/json"
  ],
  "paths": {
    "/api/v1/booking": {
      "post": {
        "operationId": "GatewayService_PostBooking",
        "responses": {
          "200": {
            "description": "A successful response.",
            "schema": {
              "$ref": "#/definitions/CreateNewBookingResponse"
            }
          },
          "default": {
            "description": "An unexpected error response.",
            "schema": {
              "$ref": "#/definitions/rpcStatus"
            }
          }
        },
        "parameters": [
          {
            "name": "body",
            "in": "body",
            "required": true,
            "schema": {
              "$ref": "#/definitions/CreateNewBookingRequest"
            }
          }
        ],
        "tags": [
          "GatewayService"
        ]
      }
    },
    "/api/v1/booking/register": {
      "put": {
        "operationId": "GatewayService_RegisterABooking",
        "responses": {
          "200": {
            "description": "A successful response.",
            "schema": {
              "$ref": "#/definitions/UpdateAssigneeResponse"
            }
          },
          "default": {
            "description": "An unexpected error response.",
            "schema": {
              "$ref": "#/definitions/rpcStatus"
            }
          }
        },
        "parameters": [
          {
            "name": "body",
            "in": "body",
            "required": true,
            "schema": {
              "$ref": "#/definitions/UpdateAssigneeRequest"
            }
          }
        ],
        "tags": [
          "GatewayService"
        ]
      }
    },
    "/api/v1/checkPrice": {
      "post": {
        "operationId": "GatewayService_CheckPrice",
        "responses": {
          "200": {
            "description": "A successful response.",
            "schema": {
              "$ref": "#/definitions/GetPriceOfTaskResponse"
            }
          },
          "default": {
            "description": "An unexpected error response.",
            "schema": {
              "$ref": "#/definitions/rpcStatus"
            }
          }
        },
        "parameters": [
          {
            "name": "body",
            "in": "body",
            "required": true,
            "schema": {
              "$ref": "#/definitions/Booking"
            }
          }
        ],
        "tags": [
          "GatewayService"
        ]
      }
    },
    "/api/v1/login": {
      "post": {
        "operationId": "GatewayService_LoginWithEmail",
        "responses": {
          "200": {
            "description": "A successful response.",
            "schema": {
              "$ref": "#/definitions/LoginEmailResp"
            }
          },
          "default": {
            "description": "An unexpected error response.",
            "schema": {
              "$ref": "#/definitions/rpcStatus"
            }
          }
        },
        "parameters": [
          {
            "name": "body",
            "in": "body",
            "required": true,
            "schema": {
              "$ref": "#/definitions/LoginEmailReq"
            }
          }
        ],
        "tags": [
          "GatewayService"
        ]
      }
    },
    "/api/v1/mod/newTask": {
      "post": {
        "operationId": "GatewayService_CreateNewTaskType",
        "responses": {
          "200": {
            "description": "A successful response.",
            "schema": {
              "$ref": "#/definitions/CreateNewTaskTypeResponse"
            }
          },
          "default": {
            "description": "An unexpected error response.",
            "schema": {
              "$ref": "#/definitions/rpcStatus"
            }
          }
        },
        "parameters": [
          {
            "name": "body",
            "in": "body",
            "required": true,
            "schema": {
              "$ref": "#/definitions/TaskType"
            }
          }
        ],
        "tags": [
          "GatewayService"
        ]
      }
    },
    "/api/v1/ping": {
      "get": {
        "operationId": "GatewayService_Sayhello",
        "responses": {
          "200": {
            "description": "A successful response.",
            "schema": {
              "$ref": "#/definitions/Pong"
            }
          },
          "default": {
            "description": "An unexpected error response.",
            "schema": {
              "$ref": "#/definitions/rpcStatus"
            }
          }
        },
        "tags": [
          "GatewayService"
        ]
      }
    },
    "/api/v1/tokens": {
      "post": {
        "operationId": "GatewayService_GetNewTokens",
        "responses": {
          "200": {
            "description": "A successful response.",
            "schema": {
              "$ref": "#/definitions/LoginEmailResp"
            }
          },
          "default": {
            "description": "An unexpected error response.",
            "schema": {
              "$ref": "#/definitions/rpcStatus"
            }
          }
        },
        "parameters": [
          {
            "name": "body",
            "in": "body",
            "required": true,
            "schema": {
              "$ref": "#/definitions/RefreshTokensReq"
            }
          }
        ],
        "tags": [
          "GatewayService"
        ]
      }
    },
    "/api/v1/users/register": {
      "post": {
        "operationId": "GatewayService_RegisterUser",
        "responses": {
          "200": {
            "description": "A successful response.",
            "schema": {
              "$ref": "#/definitions/LoginEmailResp"
            }
          },
          "default": {
            "description": "An unexpected error response.",
            "schema": {
              "$ref": "#/definitions/rpcStatus"
            }
          }
        },
        "parameters": [
          {
            "name": "body",
            "in": "body",
            "required": true,
            "schema": {
              "$ref": "#/definitions/User"
            }
          }
        ],
        "tags": [
          "GatewayService"
        ]
      }
    }
  },
  "definitions": {
    "Booking": {
      "type": "object",
      "properties": {
        "Id": {
          "type": "string"
        },
        "CustomerId": {
          "type": "string"
        },
        "AssigneeId": {
          "type": "string"
        },
        "CustomerPhoneNumber": {
          "type": "string"
        },
        "Type": {
          "type": "string"
        },
        "Status": {
          "type": "string"
        },
        "Note": {
          "type": "string"
        },
        "Address": {
          "type": "string"
        },
        "StartTime": {
          "type": "string"
        },
        "EndTime": {
          "type": "string"
        },
        "TotalPrice": {
          "type": "string"
        }
      }
    },
    "CreateNewBookingRequest": {
      "type": "object",
      "properties": {
        "CustomerId": {
          "type": "string"
        },
        "CustomerPhoneNumber": {
          "type": "string"
        },
        "Type": {
          "type": "string"
        },
        "Status": {
          "type": "string"
        },
        "Note": {
          "type": "string"
        },
        "Address": {
          "type": "string"
        },
        "StartTime": {
          "type": "string"
        },
        "EndTime": {
          "type": "string"
        }
      }
    },
    "CreateNewBookingResponse": {
      "type": "object",
      "properties": {
        "StatusCode": {
          "type": "integer",
          "format": "int32"
        },
        "Message": {
          "type": "string"
        },
        "Data": {
          "$ref": "#/definitions/Booking"
        }
      }
    },
    "CreateNewTaskTypeResponse": {
      "type": "object",
      "properties": {
        "StatusCode": {
          "type": "integer",
          "format": "int32"
        },
        "Message": {
          "type": "string"
        }
      }
    },
    "GetPriceOfTaskResponse": {
      "type": "object",
      "properties": {
        "StatusCode": {
          "type": "integer",
          "format": "int32"
        },
        "Message": {
          "type": "string"
        },
        "Price": {
          "type": "string"
        }
      }
    },
    "LoginEmailReq": {
      "type": "object",
      "properties": {
        "Email": {
          "type": "string"
        },
        "Password": {
          "type": "string"
        }
      }
    },
    "LoginEmailResp": {
      "type": "object",
      "properties": {
        "StatusCode": {
          "type": "integer",
          "format": "int32"
        },
        "Message": {
          "type": "string"
        },
        "SessionId": {
          "type": "string"
        },
        "AccessToken": {
          "type": "string"
        },
        "RefreshToken": {
          "type": "string"
        }
      }
    },
    "Pong": {
      "type": "object",
      "properties": {
        "StatusCode": {
          "type": "integer",
          "format": "int32"
        },
        "Message": {
          "type": "string"
        }
      }
    },
    "RefreshTokensReq": {
      "type": "object",
      "properties": {
        "RefreshToken": {
          "type": "string"
        }
      }
    },
    "TaskType": {
      "type": "object",
      "properties": {
        "Id": {
          "type": "string"
        },
        "Type": {
          "type": "string"
        },
        "RatePerHour": {
          "type": "string"
        },
        "CreadBy": {
          "type": "string"
        }
      }
    },
    "UpdateAssigneeRequest": {
      "type": "object",
      "properties": {
        "bookingId": {
          "type": "string"
        },
        "taskerId": {
          "type": "string"
        }
      }
    },
    "UpdateAssigneeResponse": {
      "type": "object",
      "properties": {
        "StatusCode": {
          "type": "integer",
          "format": "int32"
        },
        "Message": {
          "type": "string"
        }
      }
    },
    "User": {
      "type": "object",
      "properties": {
        "Id": {
          "type": "string"
        },
        "DisplayName": {
          "type": "string"
        },
        "Email": {
          "type": "string"
        },
        "IsActive": {
          "type": "boolean"
        },
        "Role": {
          "type": "string"
        },
        "CreatedAt": {
          "type": "string"
        },
        "UpdatedAt": {
          "type": "string"
        },
        "Password": {
          "type": "string"
        }
      }
    },
    "protobufAny": {
      "type": "object",
      "properties": {
        "@type": {
          "type": "string"
        }
      },
      "additionalProperties": {}
    },
    "rpcStatus": {
      "type": "object",
      "properties": {
        "code": {
          "type": "integer",
          "format": "int32"
        },
        "message": {
          "type": "string"
        },
        "details": {
          "type": "array",
          "items": {
            "$ref": "#/definitions/protobufAny"
          }
        }
      }
    }
  }
}
